STA 199 - AE 05: Pivoting StatSci Majors
…
Rows: Combination of year and degree type

Pivoting

Demo: Pivot the statsci data frame longer such that each row represents a degree type / year combination and year and number of graduates for that year are columns in the data frame.

statsci |>
  pivot_longer(
    cols = -degree,
    names_to = "year",
    values_to = "n"
  )

# A tibble: 44 × 3
   degree                    year      n
   <chr>                     <chr> <dbl>
 1 Statistical Science (AB2) 2011     NA
 2 Statistical Science (AB2) 2012      1
 3 Statistical Science (AB2) 2013     NA
 4 Statistical Science (AB2) 2014     NA
 5 Statistical Science (AB2) 2015      4
 6 Statistical Science (AB2) 2016      4
 7 Statistical Science (AB2) 2017      1
 8 Statistical Science (AB2) 2018     NA
 9 Statistical Science (AB2) 2019     NA
10 Statistical Science (AB2) 2020      1
# … with 34 more rows
Question: What is the type of the year variable? Why? What should it be?

It’s a character (chr) variable since the information came from the columns of the original data frame and R cannot know that these character strings represent years. The variable type should be numeric.

Demo: Start over with pivoting, and this time also make sure year is a numerical variable in the resulting data frame.

statsci |>
  pivot_longer(
    cols = -degree,
    names_to = "year",
    names_transform = as.numeric,
    values_to = "n"
  )

# A tibble: 44 × 3
   degree                     year     n
   <chr>                     <dbl> <dbl>
 1 Statistical Science (AB2)  2011    NA
 2 Statistical Science (AB2)  2012     1
 3 Statistical Science (AB2)  2013    NA
 4 Statistical Science (AB2)  2014    NA
 5 Statistical Science (AB2)  2015     4
 6 Statistical Science (AB2)  2016     4
 7 Statistical Science (AB2)  2017     1
 8 Statistical Science (AB2)  2018    NA
 9 Statistical Science (AB2)  2019    NA
10 Statistical Science (AB2)  2020     1
# … with 34 more rows
…
NAs should actually be 0s.

Demo: Add on to your pipeline that you started with pivoting and convert NAs in n to 0s.

statsci |>
  pivot_longer(
    cols = -degree,
    names_to = "year",
    names_transform = as.numeric,
    values_to = "n"
  ) |>
  mutate(n = if_else(is.na(n), 0, n))

# A tibble: 44 × 3
   degree                     year     n
   <chr>                     <dbl> <dbl>
 1 Statistical Science (AB2)  2011     0
 2 Statistical Science (AB2)  2012     1
 3 Statistical Science (AB2)  2013     0
 4 Statistical Science (AB2)  2014     0
 5 Statistical Science (AB2)  2015     4
 6 Statistical Science (AB2)  2016     4
 7 Statistical Science (AB2)  2017     1
 8 Statistical Science (AB2)  2018     0
 9 Statistical Science (AB2)  2019     0
10 Statistical Science (AB2)  2020     1
# … with 34 more rows
…
statsci |>
  pivot_longer(
    cols = -degree,
    names_to = "year",
    names_transform = as.numeric,
    values_to = "n"
  ) |>
  mutate(n = if_else(is.na(n), 0, n)) |>
  separate(degree, sep = " \\(", into = c("major", "degree_type")) |>
  mutate(
    degree_type = str_remove(degree_type, "\\)"),
    degree_type = fct_relevel(degree_type, "BS", "BS2", "AB", "AB2")
    )

# A tibble: 44 × 4
   major               degree_type  year     n
   <chr>               <fct>       <dbl> <dbl>
 1 Statistical Science AB2          2011     0
 2 Statistical Science AB2          2012     1
 3 Statistical Science AB2          2013     0
 4 Statistical Science AB2          2014     0
 5 Statistical Science AB2          2015     4
 6 Statistical Science AB2          2016     4
 7 Statistical Science AB2          2017     1
 8 Statistical Science AB2          2018     0
 9 Statistical Science AB2          2019     0
10 Statistical Science AB2          2020     1
# … with 34 more rows
…
