STA 199 - He replied / she cried: Text mining and gender roles
…
Demo: Let’s do better, without the “stop words”.

stop_words

# A tibble: 1,149 × 2
   word        lexicon
   <chr>       <chr>  
 1 a           SMART  
 2 a's         SMART  
 3 able        SMART  
 4 about       SMART  
 5 above       SMART  
 6 according   SMART  
 7 accordingly SMART  
 8 across      SMART  
 9 actually    SMART  
10 after       SMART  
# … with 1,139 more rows
…
Bigram frequencies

An n-gram is a contiguous series of \(n\) words from a text; e.g., a bigram is a pair of words, with \(n = 2\).

Demo: Split the text column into bigram tokens.

austen_bigrams <- austen_books |>
  unnest_tokens(bigram, text, token = "ngrams", n = 2) |>
  filter(!is.na(bigram))

austen_bigrams

# A tibble: 662,783 × 2
   book                bigram         
   <fct>               <chr>          
 1 Sense & Sensibility sense and      
 2 Sense & Sensibility and sensibility
 3 Sense & Sensibility by jane        
 4 Sense & Sensibility jane austen    
 5 Sense & Sensibility chapter 1      
 6 Sense & Sensibility the family     
 7 Sense & Sensibility family of      
 8 Sense & Sensibility of dashwood    
 9 Sense & Sensibility dashwood had   
10 Sense & Sensibility had long       
# … with 662,773 more rows
…
pronouns <- c("he", "she")

Demo: Filter the dataset for bigrams that start with either “she” or “he” and calculate the number of times these bigrams appeared.

bigram_counts <- austen_bigrams |>
  count(bigram, sort = TRUE) |>
  separate(bigram, into = c("word1", "word2"), sep = " ") |>
  filter(word1 %in% pronouns) |>
  count(word1, word2, wt = n, sort = TRUE) |>
  rename(total = n)

bigram_counts

# A tibble: 1,490 × 3
   word1 word2 total
   <chr> <chr> <int>
 1 she   had    1405
 2 she   was    1309
 3 he    had     965
 4 he    was     844
 5 she   could   767
 6 he    is      385
 7 she   would   348
 8 she   is      311
 9 he    could   281
10 he    would   244
# … with 1,480 more rows
…
word_ratios

# A tibble: 158 × 4
   word2          she       he logratio
   <chr>        <dbl>    <dbl>    <dbl>
 1 remembered 0.00167 0.000165     3.34
 2 read       0.00274 0.000495     2.47
 3 resolved   0.00131 0.000330     1.99
 4 felt       0.0216  0.00577      1.90
 5 longed     0.00167 0.000495     1.75
 6 received   0.00214 0.000659     1.70
 7 feared     0.00238 0.000824     1.53
 8 dared      0.00274 0.000989     1.47
 9 heard      0.00500 0.00181      1.46
10 tried      0.00226 0.000824     1.46
# … with 148 more rows

word_ratios |> 
  arrange(abs(logratio))

# A tibble: 158 × 4
   word2         she       he logratio
   <chr>       <dbl>    <dbl>    <dbl>
 1 ought    0.00548  0.00561   -0.0330
 2 walked   0.00369  0.00379   -0.0385
 3 would    0.0416   0.0404     0.0413
 4 loves    0.000953 0.000989  -0.0541
 5 too      0.000953 0.000989  -0.0541
 6 paused   0.00155  0.00148    0.0614
 7 turned   0.00310  0.00297    0.0614
 8 very     0.00155  0.00148    0.0614
 9 had      0.167    0.159      0.0724
10 listened 0.00226  0.00214    0.0784
# … with 148 more rows
…
Sentiment analysis

One way to analyze the sentiment of a text is to consider the text as a combination of its individual words and the sentiment content of the whole text as the sum of the sentiment content of the individual words. This isn’t the only way to approach sentiment analysis, but it is an often-used approach, and an approach that naturally takes advantage of the tidy tool ecosystem.1

sentiments <- get_sentiments("afinn")
sentiments

# A tibble: 2,477 × 2
   word       value
   <chr>      <dbl>
 1 abandon       -2
 2 abandoned     -2
 3 abandons      -2
 4 abducted      -2
 5 abduction     -2
 6 abductions    -2
 7 abhor         -3
 8 abhorred      -3
 9 abhorrent     -3
10 abhors        -3
# … with 2,467 more rows
…
